{
    "/js/app.js": "/js/app.js",
    "/css/app.css": "/css/app.css",
    "/css/tailwind-utilities.css": "/css/tailwind-utilities.css",
    "/js/manifest.js": "/js/manifest.js",
    "/js/vendor.js": "/js/vendor.js",
    "/js/zoom-stream.js": "/js/zoom-stream.js",
    "/css/app-build.css": "/css/app-build.css"
}
